<svg width="126" height="79" viewBox="0 0 126 79" fill="none" xmlns="http://www.w3.org/2000/svg">
<g clip-path="url(#clip0)">
<path d="M122.062 0H3.9375C1.76288 0 0 1.76288 0 3.9375V74.8125C0 76.9872 1.76288 78.75 3.9375 78.75H122.062C124.237 78.75 126 76.9872 126 74.8125V3.9375C126 1.76288 124.237 0 122.062 0Z" fill="#1F2937"/>
<path d="M108.281 11.8125H17.7188C16.6314 11.8125 15.75 12.6939 15.75 13.7812V64.9688C15.75 66.0561 16.6314 66.9375 17.7188 66.9375H108.281C109.369 66.9375 110.25 66.0561 110.25 64.9688V13.7812C110.25 12.6939 109.369 11.8125 108.281 11.8125Z" fill="#EFF6FF"/>
</g>
<defs>
<clipPath id="clip0">
<rect width="126" height="78.75" fill="white"/>
</clipPath>
</defs>
</svg>
